Project
…
data_frames_list <- lapply(data_frames_list, function(df) {
  if ("lda" %in% names(df)) {
    df <- rename(df, ID_REFA_LDA = lda)
  }
  return(df)
})

combined_df <- bind_rows(data_frames_list)

combined_df <- mutate(combined_df, CATEGORIE_TITRE = ifelse(CATEGORIE_TITRE == "?", "NON DEFINI", CATEGORIE_TITRE))

combined_df

# A tibble: 10,755,397 × 8
   JOUR   CODE_STIF_TRNS CODE_STIF_RES CODE_STIF_ARRET LIBELLE_ARRET ID_REFA_LDA
   <chr>           <dbl>         <dbl>           <dbl> <chr>               <dbl>
 1 01/07…            100           110               1 PORTE MAILLOT       71379
 2 01/07…            100           110               1 PORTE MAILLOT       71379
 3 01/07…            100           110               1 PORTE MAILLOT       71379
 4 01/07…            100           110               1 PORTE MAILLOT       71379
 5 01/07…            100           110               1 PORTE MAILLOT       71379
 6 01/07…            100           110               1 PORTE MAILLOT       71379
 7 01/07…            100           110              10 ALESIA              71030
 8 01/07…            100           110              10 ALESIA              71030
 9 01/07…            100           110              10 ALESIA              71030
10 01/07…            100           110              10 ALESIA              71030
# ℹ 10,755,387 more rows
# ℹ 2 more variables: CATEGORIE_TITRE <chr>, NB_VALD <dbl>
…
