ProjectDataVisualization
…
For column “ID_REFA_LDA”, the top 5 values with the highest numer of validations are “71517”, “73626”, “71370”, “73794” and “71410”, whereas the bottom 5 are “480950”, “480951”, “59450”, “64049” and “425819”. Again, there is no big discrepancy in the number of validations among the top 5 values and among the bottom 5 values, but there is a very significant imbalance between the top and bottom, with numbers ranging from 150M to 250M validations for the top values, and numbers reaching only up to 40.000 validations in the bottom values.

Even though we identified some discrepancies in the data, we opted not to remove what we considered to be outliers, firstly because they still represent a great volume of data and secondly because with this project we aim to analyse patterns as well as inconsistencies in these patterns and, as such, we considered the outliers to be valuable to the data exploration.

However, we still proceeded to a reduction of the data, keeping only 100.000 entries, given the whole dataset was too large to process in our personal computers and required a considerable running time. Note that we maintained the original distribution of each month and year, to ensure a good balance in the resulting subset.

# Calculate the proportion of records for each YearMonth
combined_df <- combined_df %>%
  mutate(JOUR = as.Date(JOUR, format = "%d/%m/%Y"), 
         YearMonth = format(JOUR, "%m/%Y"))
combined_df

# A tibble: 11,850,536 × 9
   JOUR       CODE_STIF_TRNS CODE_STIF_RES CODE_STIF_ARRET LIBELLE_ARRET
   <date>     <fct>          <fct>         <fct>           <chr>        
 1 2017-07-01 100            110           1               PORTE MAILLOT
 2 2017-07-01 100            110           1               PORTE MAILLOT
 3 2017-07-01 100            110           1               PORTE MAILLOT
 4 2017-07-01 100            110           1               PORTE MAILLOT
 5 2017-07-01 100            110           1               PORTE MAILLOT
 6 2017-07-01 100            110           1               PORTE MAILLOT
 7 2017-07-01 100            110           10              ALESIA       
 8 2017-07-01 100            110           10              ALESIA       
 9 2017-07-01 100            110           10              ALESIA       
10 2017-07-01 100            110           10              ALESIA       
# ℹ 11,850,526 more rows
# ℹ 4 more variables: ID_REFA_LDA <dbl>, CATEGORIE_TITRE <chr>, NB_VALD <dbl>,
#   YearMonth <chr>

n <- nrow(combined_df)

# Perform stratified sampling
set.seed(123) # for reproducibility
subset_df <- combined_df %>%
  group_by(YearMonth) %>%
  sample_n(size = (n()/n) * 100000 )

# Now, subset_df is your subset data frame with 100,000 records
subset_df

# A tibble: 99,965 × 9
# Groups:   YearMonth [72]
   JOUR       CODE_STIF_TRNS CODE_STIF_RES CODE_STIF_ARRET LIBELLE_ARRET        
   <date>     <fct>          <fct>         <fct>           <chr>                
 1 2018-01-28 810            802           189             CITE UNIVERSITAIRE   
 2 2018-01-26 800            853           558             MONTIGNY-BEAUCHAMP   
 3 2018-01-22 800            804           196             COMBS-LA-VILLE-QUINCY
 4 2018-01-26 800            854           854             THUN-LE-PARADIS      
 5 2018-01-10 800            851           347             HERICY               
 6 2018-01-14 800            853           39              AUVERS-SUR-OISE      
 7 2018-01-10 810            801           129             CERGY-PREFECTURE     
 8 2018-01-30 100            110           650             PLACE DES FETES      
 9 2018-01-13 100            110           90              BONNE NOUVELLE       
10 2018-01-21 100            110           510             MARCADET-POISSONNIERS
# ℹ 99,955 more rows
# ℹ 4 more variables: ID_REFA_LDA <dbl>, CATEGORIE_TITRE <chr>, NB_VALD <dbl>,
#   YearMonth <chr>
…
